{
    "pic" : "/img/alonzo_ble-20201204-2038_video_cover_5.jpg",
    "title" : "Alonzo Board released!",
    "abstract" : "LambdaChip Alonzo board combinates BLE, TF card and battery. It's a good choice for makers to control hardware with functional programming language.",
    "date" : 1611731670,
    "url" : "/articles/news/0",
    "oid" : 0,
    "tag" : "",
    "category" : "news"
}
