{
    "pic" : "/img/roys_view.png",
    "title" : "Scheme language is good for product",
    "abstract" : "In the past decade, I've been trying to use Scheme programming language in the product environment.",
    "date" : 1620153871,
    "url" : "/articles/news/11",
    "oid" : 11,
    "tag" : "scheme,industry,product",
    "category" : "news"
}
