{
    "pic" : "/img/release.png",
    "title" : "LambdaChip v0.4.3 released!",
    "abstract" : "Add gpio-get. Fix several bugs.",
    "date" : 1639593315,
    "url" : "/articles/news/23",
    "oid" : 23,
    "tag" : "lambdachip, release",
    "category" : "news"
}
