{
    "pic" : "/img/alonzo_pack_1.jpg",
    "title" : "India is on the shipping list now!",
    "abstract" : "Take a look at details.",
    "date" : 1620500150,
    "url" : "https://shop.lambdachip.com/pages/must-read-before-order",
    "oid" : 12,
    "tag" : "shop,shipping",
    "category" : "news"
}
