{
    "oid": 8,
    "title": "How to be a contributor",
    "tags": "lambdachip, laco, gitlab, contribute",
    "ctime": 1613666944,
    "mtime": 1613666944,
    "category" : "docs",
    "difficulty" : 3
}
